<div>
    <?php
        if(isset($_SESSION['admin'])){
            echo "<div style='padding:5% 10%;'>
                <a class='btn btn-primary' style='margin-left:auto;margin-right:auto;display:block; margin-bottom:5px' href='http://localhost/2521/API/noticiero/index.php?controller=user&action=vistaAdmin'>Vista administrador</a><br>
            </div>";
        }
    ?>
</div>